Functions in this package • dlptools
…
The default masking file is one constructed by Daniel Lai, and can be
viewed at the package
source or by loading:

vroom::vroom(system.file("extdata", "blacklist_2023.07.17.txt", package = "dlptools"))
#> # A tibble: 26 × 4
#>    seqnames     start       end    width
#>    <chr>        <dbl>     <dbl>    <dbl>
#>  1 1        120500001 148000000 27500000
#>  2 2         87000001  95500000  8500000
#>  3 3         90500001  93500000  3000000
#>  4 4         49000001  53000000  4000000
#>  5 5         46000001  49500000  3500000
#>  6 6         57000001  62500000  5500000
#>  7 7         55500001  66000000 10500000
#>  8 8         43500001  48000000  4500000
#>  9 9         38500001  71000000 32500000
#> 10 10        38500001  52000000 13500000
#> # ℹ 16 more rows
…
